solid 49923243PART2
  facet normal 0.000000e+00 -1.000000e+00 0.000000e+00
    outer loop
      vertex 2.702884e+01 -3.750000e+01 8.301517e+01
      vertex 1.731973e+01 -3.750000e+01 7.999955e+01
      vertex 2.000000e+01 -3.750000e+01 7.000000e+01
    endloop
  endfacet
  facet normal -9.659041e-01 0.000000e+00 -2.589000e-01
    outer loop
      vertex 2.000000e+01 -1.750000e+01 7.000000e+01
      vertex 2.000000e+01 -3.750000e+01 7.000000e+01
      vertex 1.731973e+01 -3.750000e+01 7.999955e+01
    endloop
  endfacet
  facet normal 0.000000e+00 -1.000000e+00 0.000000e+00
    outer loop
      vertex 3.000000e+01 -3.750000e+01 7.000000e+01
      vertex 2.000000e+01 -3.750000e+01 7.000000e+01
      vertex 1.731973e+01 -3.750000e+01 6.000045e+01
    endloop
  endfacet
  facet normal -9.659041e-01 -7.352618e-06 2.589000e-01
    outer loop
      vertex 1.731910e+01 -1.750000e+01 5.999865e+01
      vertex 1.731973e+01 -3.750000e+01 6.000045e+01
      vertex 2.000000e+01 -3.750000e+01 7.000000e+01
    endloop
  endfacet
  facet normal 0.000000e+00 -1.000000e+00 0.000000e+00
    outer loop
      vertex 3.000000e+01 -3.750000e+01 7.000000e+01
      vertex 2.702884e+01 -3.750000e+01 8.301517e+01
      vertex 2.000000e+01 -3.750000e+01 7.000000e+01
    endloop
  endfacet
  facet normal -9.659004e-01 0.000000e+00 2.589138e-01
    outer loop
      vertex 1.731910e+01 -1.750000e+01 5.999865e+01
      vertex 2.000000e+01 -3.750000e+01 7.000000e+01
      vertex 2.000000e+01 -1.750000e+01 7.000000e+01
    endloop
  endfacet
  facet normal 0.000000e+00 -1.000000e+00 0.000000e+00
    outer loop
      vertex 2.702884e+01 -3.750000e+01 8.301517e+01
      vertex 1.000000e+01 -3.750000e+01 8.732051e+01
      vertex 1.731973e+01 -3.750000e+01 7.999955e+01
    endloop
  endfacet
  facet normal -7.071661e-01 4.116286e-05 -7.070475e-01
    outer loop
      vertex 1.731910e+01 -1.750000e+01 8.000135e+01
      vertex 1.731973e+01 -3.750000e+01 7.999955e+01
      vertex 1.000000e+01 -3.750000e+01 8.732051e+01
    endloop
  endfacet
  facet normal -9.659004e-01 -7.351268e-06 -2.589138e-01
    outer loop
      vertex 1.731910e+01 -1.750000e+01 8.000135e+01
      vertex 2.000000e+01 -1.750000e+01 7.000000e+01
      vertex 1.731973e+01 -3.750000e+01 7.999955e+01
    endloop
  endfacet
  facet normal 0.000000e+00 -1.000000e+00 0.000000e+00
    outer loop
      vertex 1.870241e+01 -3.750000e+01 9.345651e+01
      vertex -3.663736e-15 -3.750000e+01 8.999910e+01
      vertex 1.000000e+01 -3.750000e+01 8.732051e+01
    endloop
  endfacet
  facet normal -2.587381e-01 -5.076881e-05 -9.659475e-01
    outer loop
      vertex 1.000135e+01 -1.750000e+01 8.731910e+01
      vertex 1.000000e+01 -3.750000e+01 8.732051e+01
      vertex -3.663736e-15 -3.750000e+01 8.999910e+01
    endloop
  endfacet
  facet normal 0.000000e+00 -1.000000e+00 0.000000e+00
    outer loop
      vertex 2.702884e+01 -3.750000e+01 8.301517e+01
      vertex 1.870241e+01 -3.750000e+01 9.345651e+01
      vertex 1.000000e+01 -3.750000e+01 8.732051e+01
    endloop
  endfacet
  facet normal -7.071068e-01 -2.231150e-06 -7.071068e-01
    outer loop
      vertex 1.000135e+01 -1.750000e+01 8.731910e+01
      vertex 1.731910e+01 -1.750000e+01 8.000135e+01
      vertex 1.000000e+01 -3.750000e+01 8.732051e+01
    endloop
  endfacet
  facet normal 0.000000e+00 -1.000000e+00 0.000000e+00
    outer loop
      vertex -2.702884e+01 -3.750000e+01 8.301517e+01
      vertex -1.000000e+01 -3.750000e+01 8.732051e+01
      vertex -3.663736e-15 -3.750000e+01 8.999910e+01
    endloop
  endfacet
  facet normal 2.587381e-01 4.340219e-05 -9.659475e-01
    outer loop
      vertex -2.131628e-14 -1.750000e+01 9.000000e+01
      vertex -3.663736e-15 -3.750000e+01 8.999910e+01
      vertex -1.000000e+01 -3.750000e+01 8.732051e+01
    endloop
  endfacet
  facet normal 0.000000e+00 -1.000000e+00 0.000000e+00
    outer loop
      vertex -1.870241e+01 -3.750000e+01 9.345651e+01
      vertex -2.702884e+01 -3.750000e+01 8.301517e+01
      vertex -3.663736e-15 -3.750000e+01 8.999910e+01
    endloop
  endfacet
  facet normal 0.000000e+00 -1.000000e+00 0.000000e+00
    outer loop
      vertex 1.870241e+01 -3.750000e+01 9.345651e+01
      vertex -1.870241e+01 -3.750000e+01 9.345651e+01
      vertex -3.663736e-15 -3.750000e+01 8.999910e+01
    endloop
  endfacet
  facet normal -2.589138e-01 4.340008e-05 -9.659004e-01
    outer loop
      vertex -2.131628e-14 -1.750000e+01 9.000000e+01
      vertex 1.000135e+01 -1.750000e+01 8.731910e+01
      vertex -3.663736e-15 -3.750000e+01 8.999910e+01
    endloop
  endfacet
  facet normal 0.000000e+00 -1.000000e+00 0.000000e+00
    outer loop
      vertex -2.702884e+01 -3.750000e+01 8.301517e+01
      vertex -1.731973e+01 -3.750000e+01 7.999955e+01
      vertex -1.000000e+01 -3.750000e+01 8.732051e+01
    endloop
  endfacet
  facet normal 7.071661e-01 -2.222961e-06 -7.070475e-01
    outer loop
      vertex -1.000135e+01 -1.750000e+01 8.731910e+01
      vertex -1.000000e+01 -3.750000e+01 8.732051e+01
      vertex -1.731973e+01 -3.750000e+01 7.999955e+01
    endloop
  endfacet
  facet normal 2.589138e-01 -5.075363e-05 -9.659004e-01
    outer loop
      vertex -1.000135e+01 -1.750000e+01 8.731910e+01
      vertex -2.131628e-14 -1.750000e+01 9.000000e+01
      vertex -1.000000e+01 -3.750000e+01 8.732051e+01
    endloop
  endfacet
  facet normal 0.000000e+00 -1.000000e+00 0.000000e+00
    outer loop
      vertex -3.000000e+01 -3.750000e+01 7.000000e+01
      vertex -2.000000e+01 -3.750000e+01 7.000000e+01
      vertex -1.731973e+01 -3.750000e+01 7.999955e+01
    endloop
  endfacet
  facet normal 9.659041e-01 -7.352618e-06 -2.589000e-01
    outer loop
      vertex -1.731910e+01 -1.750000e+01 8.000135e+01
      vertex -1.731973e+01 -3.750000e+01 7.999955e+01
      vertex -2.000000e+01 -3.750000e+01 7.000000e+01
    endloop
  endfacet
  facet normal 0.000000e+00 -1.000000e+00 0.000000e+00
    outer loop
      vertex -2.702884e+01 -3.750000e+01 8.301517e+01
      vertex -3.000000e+01 -3.750000e+01 7.000000e+01
      vertex -1.731973e+01 -3.750000e+01 7.999955e+01
    endloop
  endfacet
  facet normal 7.071068e-01 4.117007e-05 -7.071068e-01
    outer loop
      vertex -1.731910e+01 -1.750000e+01 8.000135e+01
      vertex -1.000135e+01 -1.750000e+01 8.731910e+01
      vertex -1.731973e+01 -3.750000e+01 7.999955e+01
    endloop
  endfacet
  facet normal 0.000000e+00 -1.000000e+00 0.000000e+00
    outer loop
      vertex -3.000000e+01 -3.750000e+01 0.000000e+00
      vertex -1.731973e+01 -3.750000e+01 6.000045e+01
      vertex -2.000000e+01 -3.750000e+01 7.000000e+01
    endloop
  endfacet
  facet normal 9.659041e-01 0.000000e+00 2.589000e-01
    outer loop
      vertex -2.000000e+01 -1.750000e+01 7.000000e+01
      vertex -2.000000e+01 -3.750000e+01 7.000000e+01
      vertex -1.731973e+01 -3.750000e+01 6.000045e+01
    endloop
  endfacet
  facet normal 0.000000e+00 -1.000000e+00 0.000000e+00
    outer loop
      vertex -3.000000e+01 -3.750000e+01 7.000000e+01
      vertex -3.000000e+01 -3.750000e+01 0.000000e+00
      vertex -2.000000e+01 -3.750000e+01 7.000000e+01
    endloop
  endfacet
  facet normal 9.659004e-01 0.000000e+00 -2.589138e-01
    outer loop
      vertex -1.731910e+01 -1.750000e+01 8.000135e+01
      vertex -2.000000e+01 -3.750000e+01 7.000000e+01
      vertex -2.000000e+01 -1.750000e+01 7.000000e+01
    endloop
  endfacet
  facet normal 0.000000e+00 -1.000000e+00 0.000000e+00
    outer loop
      vertex -3.000000e+01 -3.750000e+01 0.000000e+00
      vertex -1.000000e+01 -3.750000e+01 5.267949e+01
      vertex -1.731973e+01 -3.750000e+01 6.000045e+01
    endloop
  endfacet
  facet normal 7.071661e-01 4.116286e-05 7.070475e-01
    outer loop
      vertex -1.731910e+01 -1.750000e+01 5.999865e+01
      vertex -1.731973e+01 -3.750000e+01 6.000045e+01
      vertex -1.000000e+01 -3.750000e+01 5.267949e+01
    endloop
  endfacet
  facet normal 9.659004e-01 -7.351268e-06 2.589138e-01
    outer loop
      vertex -1.731910e+01 -1.750000e+01 5.999865e+01
      vertex -2.000000e+01 -1.750000e+01 7.000000e+01
      vertex -1.731973e+01 -3.750000e+01 6.000045e+01
    endloop
  endfacet
  facet normal 0.000000e+00 -1.000000e+00 0.000000e+00
    outer loop
      vertex -3.000000e+01 -3.750000e+01 0.000000e+00
      vertex 1.443290e-15 -3.750000e+01 5.000090e+01
      vertex -1.000000e+01 -3.750000e+01 5.267949e+01
    endloop
  endfacet
  facet normal 2.587381e-01 -5.076881e-05 9.659475e-01
    outer loop
      vertex -1.000135e+01 -1.750000e+01 5.268090e+01
      vertex -1.000000e+01 -3.750000e+01 5.267949e+01
      vertex 1.443290e-15 -3.750000e+01 5.000090e+01
    endloop
  endfacet
  facet normal 7.071068e-01 -2.231150e-06 7.071068e-01
    outer loop
      vertex -1.000135e+01 -1.750000e+01 5.268090e+01
      vertex -1.731910e+01 -1.750000e+01 5.999865e+01
      vertex -1.000000e+01 -3.750000e+01 5.267949e+01
    endloop
  endfacet
  facet normal 0.000000e+00 -1.000000e+00 0.000000e+00
    outer loop
      vertex -3.000000e+01 -3.750000e+01 0.000000e+00
      vertex 1.000000e+01 -3.750000e+01 5.267949e+01
      vertex 1.443290e-15 -3.750000e+01 5.000090e+01
    endloop
  endfacet
  facet normal -2.587381e-01 4.340219e-05 9.659475e-01
    outer loop
      vertex 0.000000e+00 -1.750000e+01 5.000000e+01
      vertex 1.443290e-15 -3.750000e+01 5.000090e+01
      vertex 1.000000e+01 -3.750000e+01 5.267949e+01
    endloop
  endfacet
  facet normal 2.589138e-01 4.340008e-05 9.659004e-01
    outer loop
      vertex 0.000000e+00 -1.750000e+01 5.000000e+01
      vertex -1.000135e+01 -1.750000e+01 5.268090e+01
      vertex 1.443290e-15 -3.750000e+01 5.000090e+01
    endloop
  endfacet
  facet normal 0.000000e+00 -1.000000e+00 0.000000e+00
    outer loop
      vertex 3.000000e+01 -3.750000e+01 7.000000e+01
      vertex 1.731973e+01 -3.750000e+01 6.000045e+01
      vertex 1.000000e+01 -3.750000e+01 5.267949e+01
    endloop
  endfacet
  facet normal -7.071661e-01 -2.222961e-06 7.070475e-01
    outer loop
      vertex 1.000135e+01 -1.750000e+01 5.268090e+01
      vertex 1.000000e+01 -3.750000e+01 5.267949e+01
      vertex 1.731973e+01 -3.750000e+01 6.000045e+01
    endloop
  endfacet
  facet normal 0.000000e+00 -1.000000e+00 0.000000e+00
    outer loop
      vertex 3.000000e+01 -3.750000e+01 7.000000e+01
      vertex 1.000000e+01 -3.750000e+01 5.267949e+01
      vertex -3.000000e+01 -3.750000e+01 0.000000e+00
    endloop
  endfacet
  facet normal -2.589138e-01 -5.075363e-05 9.659004e-01
    outer loop
      vertex 1.000135e+01 -1.750000e+01 5.268090e+01
      vertex 0.000000e+00 -1.750000e+01 5.000000e+01
      vertex 1.000000e+01 -3.750000e+01 5.267949e+01
    endloop
  endfacet
  facet normal -7.071068e-01 4.117007e-05 7.071068e-01
    outer loop
      vertex 1.731910e+01 -1.750000e+01 5.999865e+01
      vertex 1.000135e+01 -1.750000e+01 5.268090e+01
      vertex 1.731973e+01 -3.750000e+01 6.000045e+01
    endloop
  endfacet
  facet normal -1.000000e+00 0.000000e+00 0.000000e+00
    outer loop
      vertex -3.000000e+01 -1.750000e+01 0.000000e+00
      vertex -3.000000e+01 -3.750000e+01 0.000000e+00
      vertex -3.000000e+01 -3.750000e+01 7.000000e+01
    endloop
  endfacet
  facet normal 0.000000e+00 -1.000000e+00 0.000000e+00
    outer loop
      vertex 3.000000e+01 -3.750000e+01 0.000000e+00
      vertex 3.000000e+01 -3.750000e+01 7.000000e+01
      vertex -3.000000e+01 -3.750000e+01 0.000000e+00
    endloop
  endfacet
  facet normal 0.000000e+00 0.000000e+00 -1.000000e+00
    outer loop
      vertex 3.000000e+01 -1.750000e+01 0.000000e+00
      vertex 3.000000e+01 -3.750000e+01 0.000000e+00
      vertex -3.000000e+01 -3.750000e+01 0.000000e+00
    endloop
  endfacet
  facet normal 0.000000e+00 0.000000e+00 -1.000000e+00
    outer loop
      vertex 3.000000e+01 -1.750000e+01 0.000000e+00
      vertex -3.000000e+01 -3.750000e+01 0.000000e+00
      vertex -3.000000e+01 -1.750000e+01 0.000000e+00
    endloop
  endfacet
  facet normal -9.749193e-01 0.000000e+00 2.225588e-01
    outer loop
      vertex -3.000000e+01 -1.750000e+01 7.000000e+01
      vertex -3.000000e+01 -3.750000e+01 7.000000e+01
      vertex -2.702884e+01 -3.750000e+01 8.301517e+01
    endloop
  endfacet
  facet normal -1.000000e+00 0.000000e+00 0.000000e+00
    outer loop
      vertex -3.000000e+01 -1.750000e+01 7.000000e+01
      vertex -3.000000e+01 -1.750000e+01 2.500000e+01
      vertex -3.000000e+01 -3.750000e+01 7.000000e+01
    endloop
  endfacet
  facet normal -1.000000e+00 0.000000e+00 0.000000e+00
    outer loop
      vertex -3.000000e+01 -1.750000e+01 0.000000e+00
      vertex -3.000000e+01 -3.750000e+01 7.000000e+01
      vertex -3.000000e+01 -1.750000e+01 2.500000e+01
    endloop
  endfacet
  facet normal -7.818411e-01 -3.050752e-05 6.234778e-01
    outer loop
      vertex -2.702810e+01 -1.750000e+01 8.301708e+01
      vertex -2.702884e+01 -3.750000e+01 8.301517e+01
      vertex -1.870241e+01 -3.750000e+01 9.345651e+01
    endloop
  endfacet
  facet normal -9.749143e-01 1.488713e-05 2.225805e-01
    outer loop
      vertex -2.702810e+01 -1.750000e+01 8.301708e+01
      vertex -3.000000e+01 -1.750000e+01 7.000000e+01
      vertex -2.702884e+01 -3.750000e+01 8.301517e+01
    endloop
  endfacet
  facet normal 0.000000e+00 -1.000000e+00 0.000000e+00
    outer loop
      vertex 6.678204e+00 -3.750000e+01 9.924669e+01
      vertex -6.678204e+00 -3.750000e+01 9.924669e+01
      vertex -1.870241e+01 -3.750000e+01 9.345651e+01
    endloop
  endfacet
  facet normal -4.338609e-01 5.467488e-05 9.009799e-01
    outer loop
      vertex -1.870642e+01 -1.750000e+01 9.345337e+01
      vertex -1.870241e+01 -3.750000e+01 9.345651e+01
      vertex -6.678204e+00 -3.750000e+01 9.924669e+01
    endloop
  endfacet
  facet normal 0.000000e+00 -1.000000e+00 0.000000e+00
    outer loop
      vertex 1.870241e+01 -3.750000e+01 9.345651e+01
      vertex 6.678204e+00 -3.750000e+01 9.924669e+01
      vertex -1.870241e+01 -3.750000e+01 9.345651e+01
    endloop
  endfacet
  facet normal -7.818673e-01 -5.858243e-05 6.234449e-01
    outer loop
      vertex -1.870642e+01 -1.750000e+01 9.345337e+01
      vertex -2.702810e+01 -1.750000e+01 8.301708e+01
      vertex -1.870241e+01 -3.750000e+01 9.345651e+01
    endloop
  endfacet
  facet normal -1.063973e-15 -6.212821e-05 1.000000e+00
    outer loop
      vertex -6.673260e+00 -1.750000e+01 9.924793e+01
      vertex -6.678204e+00 -3.750000e+01 9.924669e+01
      vertex 6.678204e+00 -3.750000e+01 9.924669e+01
    endloop
  endfacet
  facet normal -4.338654e-01 5.128287e-05 9.009777e-01
    outer loop
      vertex -6.673260e+00 -1.750000e+01 9.924793e+01
      vertex -1.870642e+01 -1.750000e+01 9.345337e+01
      vertex -6.678204e+00 -3.750000e+01 9.924669e+01
    endloop
  endfacet
  facet normal 4.338609e-01 5.128160e-05 9.009799e-01
    outer loop
      vertex 6.673260e+00 -1.750000e+01 9.924793e+01
      vertex 6.678204e+00 -3.750000e+01 9.924669e+01
      vertex 1.870241e+01 -3.750000e+01 9.345651e+01
    endloop
  endfacet
  facet normal 0.000000e+00 -6.212821e-05 1.000000e+00
    outer loop
      vertex 6.673260e+00 -1.750000e+01 9.924793e+01
      vertex -6.673260e+00 -1.750000e+01 9.924793e+01
      vertex 6.678204e+00 -3.750000e+01 9.924669e+01
    endloop
  endfacet
  facet normal 7.818411e-01 -5.857201e-05 6.234778e-01
    outer loop
      vertex 1.870642e+01 -1.750000e+01 9.345337e+01
      vertex 1.870241e+01 -3.750000e+01 9.345651e+01
      vertex 2.702884e+01 -3.750000e+01 8.301517e+01
    endloop
  endfacet
  facet normal 4.338654e-01 5.467361e-05 9.009777e-01
    outer loop
      vertex 1.870642e+01 -1.750000e+01 9.345337e+01
      vertex 6.673260e+00 -1.750000e+01 9.924793e+01
      vertex 1.870241e+01 -3.750000e+01 9.345651e+01
    endloop
  endfacet
  facet normal 9.749193e-01 1.488939e-05 2.225588e-01
    outer loop
      vertex 2.702810e+01 -1.750000e+01 8.301708e+01
      vertex 2.702884e+01 -3.750000e+01 8.301517e+01
      vertex 3.000000e+01 -3.750000e+01 7.000000e+01
    endloop
  endfacet
  facet normal 7.818673e-01 -3.050342e-05 6.234449e-01
    outer loop
      vertex 2.702810e+01 -1.750000e+01 8.301708e+01
      vertex 1.870642e+01 -1.750000e+01 9.345337e+01
      vertex 2.702884e+01 -3.750000e+01 8.301517e+01
    endloop
  endfacet
  facet normal 1.000000e+00 0.000000e+00 0.000000e+00
    outer loop
      vertex 3.000000e+01 -1.750000e+01 7.000000e+01
      vertex 3.000000e+01 -3.750000e+01 7.000000e+01
      vertex 3.000000e+01 -3.750000e+01 0.000000e+00
    endloop
  endfacet
  facet normal 9.749143e-01 -1.581530e-16 2.225805e-01
    outer loop
      vertex 3.000000e+01 -1.750000e+01 7.000000e+01
      vertex 2.702810e+01 -1.750000e+01 8.301708e+01
      vertex 3.000000e+01 -3.750000e+01 7.000000e+01
    endloop
  endfacet
  facet normal 1.000000e+00 0.000000e+00 0.000000e+00
    outer loop
      vertex 3.000000e+01 -1.750000e+01 2.500000e+01
      vertex 3.000000e+01 -1.750000e+01 7.000000e+01
      vertex 3.000000e+01 -3.750000e+01 0.000000e+00
    endloop
  endfacet
  facet normal 1.000000e+00 0.000000e+00 0.000000e+00
    outer loop
      vertex 3.000000e+01 1.750000e+01 2.500000e+01
      vertex 3.000000e+01 -3.750000e+01 0.000000e+00
      vertex 3.000000e+01 -1.750000e+01 0.000000e+00
    endloop
  endfacet
  facet normal 1.000000e+00 0.000000e+00 0.000000e+00
    outer loop
      vertex 3.000000e+01 1.750000e+01 2.500000e+01
      vertex 3.000000e+01 -1.750000e+01 2.500000e+01
      vertex 3.000000e+01 -3.750000e+01 0.000000e+00
    endloop
  endfacet
  facet normal 0.000000e+00 1.000000e+00 0.000000e+00
    outer loop
      vertex 3.000000e+01 3.750000e+01 0.000000e+00
      vertex 1.731973e+01 3.750000e+01 6.000045e+01
      vertex 2.000000e+01 3.750000e+01 7.000000e+01
    endloop
  endfacet
  facet normal -9.659041e-01 0.000000e+00 2.589000e-01
    outer loop
      vertex 2.000000e+01 1.750000e+01 7.000000e+01
      vertex 2.000000e+01 3.750000e+01 7.000000e+01
      vertex 1.731973e+01 3.750000e+01 6.000045e+01
    endloop
  endfacet
  facet normal 0.000000e+00 1.000000e+00 0.000000e+00
    outer loop
      vertex 3.000000e+01 3.750000e+01 7.000000e+01
      vertex 2.000000e+01 3.750000e+01 7.000000e+01
      vertex 1.731973e+01 3.750000e+01 7.999955e+01
    endloop
  endfacet
  facet normal -9.659041e-01 7.352618e-06 -2.589000e-01
    outer loop
      vertex 1.731910e+01 1.750000e+01 8.000135e+01
      vertex 1.731973e+01 3.750000e+01 7.999955e+01
      vertex 2.000000e+01 3.750000e+01 7.000000e+01
    endloop
  endfacet
  facet normal 0.000000e+00 1.000000e+00 0.000000e+00
    outer loop
      vertex 3.000000e+01 3.750000e+01 7.000000e+01
      vertex 3.000000e+01 3.750000e+01 0.000000e+00
      vertex 2.000000e+01 3.750000e+01 7.000000e+01
    endloop
  endfacet
  facet normal -9.659004e-01 0.000000e+00 -2.589138e-01
    outer loop
      vertex 2.000000e+01 1.750000e+01 7.000000e+01
      vertex 1.731910e+01 1.750000e+01 8.000135e+01
      vertex 2.000000e+01 3.750000e+01 7.000000e+01
    endloop
  endfacet
  facet normal 0.000000e+00 1.000000e+00 0.000000e+00
    outer loop
      vertex 3.000000e+01 3.750000e+01 0.000000e+00
      vertex 1.000000e+01 3.750000e+01 5.267949e+01
      vertex 1.731973e+01 3.750000e+01 6.000045e+01
    endloop
  endfacet
  facet normal -7.071661e-01 -4.116286e-05 7.070475e-01
    outer loop
      vertex 1.731910e+01 1.750000e+01 5.999865e+01
      vertex 1.731973e+01 3.750000e+01 6.000045e+01
      vertex 1.000000e+01 3.750000e+01 5.267949e+01
    endloop
  endfacet
  facet normal -9.659004e-01 7.351268e-06 2.589138e-01
    outer loop
      vertex 1.731910e+01 1.750000e+01 5.999865e+01
      vertex 2.000000e+01 1.750000e+01 7.000000e+01
      vertex 1.731973e+01 3.750000e+01 6.000045e+01
    endloop
  endfacet
  facet normal 0.000000e+00 1.000000e+00 0.000000e+00
    outer loop
      vertex 3.000000e+01 3.750000e+01 0.000000e+00
      vertex 1.443290e-15 3.750000e+01 5.000090e+01
      vertex 1.000000e+01 3.750000e+01 5.267949e+01
    endloop
  endfacet
  facet normal -2.587381e-01 5.076881e-05 9.659475e-01
    outer loop
      vertex 1.000135e+01 1.750000e+01 5.268090e+01
      vertex 1.000000e+01 3.750000e+01 5.267949e+01
      vertex 1.443290e-15 3.750000e+01 5.000090e+01
    endloop
  endfacet
  facet normal -7.071068e-01 2.231150e-06 7.071068e-01
    outer loop
      vertex 1.000135e+01 1.750000e+01 5.268090e+01
      vertex 1.731910e+01 1.750000e+01 5.999865e+01
      vertex 1.000000e+01 3.750000e+01 5.267949e+01
    endloop
  endfacet
  facet normal 0.000000e+00 1.000000e+00 0.000000e+00
    outer loop
      vertex 3.000000e+01 3.750000e+01 0.000000e+00
      vertex -1.000000e+01 3.750000e+01 5.267949e+01
      vertex 1.443290e-15 3.750000e+01 5.000090e+01
    endloop
  endfacet
  facet normal 2.587381e-01 -4.340219e-05 9.659475e-01
    outer loop
      vertex 0.000000e+00 1.750000e+01 5.000000e+01
      vertex 1.443290e-15 3.750000e+01 5.000090e+01
      vertex -1.000000e+01 3.750000e+01 5.267949e+01
    endloop
  endfacet
  facet normal -2.589138e-01 -4.340008e-05 9.659004e-01
    outer loop
      vertex 0.000000e+00 1.750000e+01 5.000000e+01
      vertex 1.000135e+01 1.750000e+01 5.268090e+01
      vertex 1.443290e-15 3.750000e+01 5.000090e+01
    endloop
  endfacet
  facet normal 0.000000e+00 1.000000e+00 0.000000e+00
    outer loop
      vertex -3.000000e+01 3.750000e+01 7.000000e+01
      vertex -1.731973e+01 3.750000e+01 6.000045e+01
      vertex -1.000000e+01 3.750000e+01 5.267949e+01
    endloop
  endfacet
  facet normal 7.071661e-01 2.222961e-06 7.070475e-01
    outer loop
      vertex -1.000135e+01 1.750000e+01 5.268090e+01
      vertex -1.000000e+01 3.750000e+01 5.267949e+01
      vertex -1.731973e+01 3.750000e+01 6.000045e+01
    endloop
  endfacet
  facet normal 0.000000e+00 1.000000e+00 0.000000e+00
    outer loop
      vertex -3.000000e+01 3.750000e+01 7.000000e+01
      vertex -1.000000e+01 3.750000e+01 5.267949e+01
      vertex 3.000000e+01 3.750000e+01 0.000000e+00
    endloop
  endfacet
  facet normal 2.589138e-01 5.075363e-05 9.659004e-01
    outer loop
      vertex -1.000135e+01 1.750000e+01 5.268090e+01
      vertex 0.000000e+00 1.750000e+01 5.000000e+01
      vertex -1.000000e+01 3.750000e+01 5.267949e+01
    endloop
  endfacet
  facet normal 0.000000e+00 1.000000e+00 0.000000e+00
    outer loop
      vertex -3.000000e+01 3.750000e+01 7.000000e+01
      vertex -2.000000e+01 3.750000e+01 7.000000e+01
      vertex -1.731973e+01 3.750000e+01 6.000045e+01
    endloop
  endfacet
  facet normal 9.659041e-01 7.352618e-06 2.589000e-01
    outer loop
      vertex -1.731910e+01 1.750000e+01 5.999865e+01
      vertex -1.731973e+01 3.750000e+01 6.000045e+01
      vertex -2.000000e+01 3.750000e+01 7.000000e+01
    endloop
  endfacet
  facet normal 7.071068e-01 -4.117007e-05 7.071068e-01
    outer loop
      vertex -1.731910e+01 1.750000e+01 5.999865e+01
      vertex -1.000135e+01 1.750000e+01 5.268090e+01
      vertex -1.731973e+01 3.750000e+01 6.000045e+01
    endloop
  endfacet
  facet normal 0.000000e+00 1.000000e+00 0.000000e+00
    outer loop
      vertex -2.702884e+01 3.750000e+01 8.301517e+01
      vertex -1.731973e+01 3.750000e+01 7.999955e+01
      vertex -2.000000e+01 3.750000e+01 7.000000e+01
    endloop
  endfacet
  facet normal 9.659041e-01 0.000000e+00 -2.589000e-01
    outer loop
      vertex -2.000000e+01 1.750000e+01 7.000000e+01
      vertex -2.000000e+01 3.750000e+01 7.000000e+01
      vertex -1.731973e+01 3.750000e+01 7.999955e+01
    endloop
  endfacet
  facet normal 0.000000e+00 1.000000e+00 0.000000e+00
    outer loop
      vertex -3.000000e+01 3.750000e+01 7.000000e+01
      vertex -2.702884e+01 3.750000e+01 8.301517e+01
      vertex -2.000000e+01 3.750000e+01 7.000000e+01
    endloop
  endfacet
  facet normal 9.659004e-01 0.000000e+00 2.589138e-01
    outer loop
      vertex -1.731910e+01 1.750000e+01 5.999865e+01
      vertex -2.000000e+01 3.750000e+01 7.000000e+01
      vertex -2.000000e+01 1.750000e+01 7.000000e+01
    endloop
  endfacet
  facet normal 0.000000e+00 1.000000e+00 0.000000e+00
    outer loop
      vertex -2.702884e+01 3.750000e+01 8.301517e+01
      vertex -1.000000e+01 3.750000e+01 8.732051e+01
      vertex -1.731973e+01 3.750000e+01 7.999955e+01
    endloop
  endfacet
  facet normal 7.071661e-01 -4.116286e-05 -7.070475e-01
    outer loop
      vertex -1.731910e+01 1.750000e+01 8.000135e+01
      vertex -1.731973e+01 3.750000e+01 7.999955e+01
      vertex -1.000000e+01 3.750000e+01 8.732051e+01
    endloop
  endfacet
  facet normal 9.659004e-01 7.351268e-06 -2.589138e-01
    outer loop
      vertex -1.731910e+01 1.750000e+01 8.000135e+01
      vertex -2.000000e+01 1.750000e+01 7.000000e+01
      vertex -1.731973e+01 3.750000e+01 7.999955e+01
    endloop
  endfacet
  facet normal 0.000000e+00 1.000000e+00 0.000000e+00
    outer loop
      vertex -1.870241e+01 3.750000e+01 9.345651e+01
      vertex -3.663736e-15 3.750000e+01 8.999910e+01
      vertex -1.000000e+01 3.750000e+01 8.732051e+01
    endloop
  endfacet
  facet normal 2.587381e-01 5.076881e-05 -9.659475e-01
    outer loop
      vertex -1.000135e+01 1.750000e+01 8.731910e+01
      vertex -1.000000e+01 3.750000e+01 8.732051e+01
      vertex -3.663736e-15 3.750000e+01 8.999910e+01
    endloop
  endfacet
  facet normal 0.000000e+00 1.000000e+00 0.000000e+00
    outer loop
      vertex -2.702884e+01 3.750000e+01 8.301517e+01
      vertex -1.870241e+01 3.750000e+01 9.345651e+01
      vertex -1.000000e+01 3.750000e+01 8.732051e+01
    endloop
  endfacet
  facet normal 7.071068e-01 2.231150e-06 -7.071068e-01
    outer loop
      vertex -1.000135e+01 1.750000e+01 8.731910e+01
      vertex -1.731910e+01 1.750000e+01 8.000135e+01
      vertex -1.000000e+01 3.750000e+01 8.732051e+01
    endloop
  endfacet
  facet normal 0.000000e+00 1.000000e+00 0.000000e+00
    outer loop
      vertex 2.702884e+01 3.750000e+01 8.301517e+01
      vertex 1.000000e+01 3.750000e+01 8.732051e+01
      vertex -3.663736e-15 3.750000e+01 8.999910e+01
    endloop
  endfacet
  facet normal -2.587381e-01 -4.340219e-05 -9.659475e-01
    outer loop
      vertex -2.131628e-14 1.750000e+01 9.000000e+01
      vertex -3.663736e-15 3.750000e+01 8.999910e+01
      vertex 1.000000e+01 3.750000e+01 8.732051e+01
    endloop
  endfacet
  facet normal 0.000000e+00 1.000000e+00 0.000000e+00
    outer loop
      vertex 1.870241e+01 3.750000e+01 9.345651e+01
      vertex 2.702884e+01 3.750000e+01 8.301517e+01
      vertex -3.663736e-15 3.750000e+01 8.999910e+01
    endloop
  endfacet
  facet normal 0.000000e+00 1.000000e+00 0.000000e+00
    outer loop
      vertex -1.870241e+01 3.750000e+01 9.345651e+01
      vertex 1.870241e+01 3.750000e+01 9.345651e+01
      vertex -3.663736e-15 3.750000e+01 8.999910e+01
    endloop
  endfacet
  facet normal 2.589138e-01 -4.340008e-05 -9.659004e-01
    outer loop
      vertex -2.131628e-14 1.750000e+01 9.000000e+01
      vertex -1.000135e+01 1.750000e+01 8.731910e+01
      vertex -3.663736e-15 3.750000e+01 8.999910e+01
    endloop
  endfacet
  facet normal 0.000000e+00 1.000000e+00 0.000000e+00
    outer loop
      vertex 2.702884e+01 3.750000e+01 8.301517e+01
      vertex 1.731973e+01 3.750000e+01 7.999955e+01
      vertex 1.000000e+01 3.750000e+01 8.732051e+01
    endloop
  endfacet
  facet normal -7.071661e-01 2.222961e-06 -7.070475e-01
    outer loop
      vertex 1.000135e+01 1.750000e+01 8.731910e+01
      vertex 1.000000e+01 3.750000e+01 8.732051e+01
      vertex 1.731973e+01 3.750000e+01 7.999955e+01
    endloop
  endfacet
  facet normal -2.589138e-01 5.075363e-05 -9.659004e-01
    outer loop
      vertex 1.000135e+01 1.750000e+01 8.731910e+01
      vertex -2.131628e-14 1.750000e+01 9.000000e+01
      vertex 1.000000e+01 3.750000e+01 8.732051e+01
    endloop
  endfacet
  facet normal 0.000000e+00 1.000000e+00 0.000000e+00
    outer loop
      vertex 2.702884e+01 3.750000e+01 8.301517e+01
      vertex 3.000000e+01 3.750000e+01 7.000000e+01
      vertex 1.731973e+01 3.750000e+01 7.999955e+01
    endloop
  endfacet
  facet normal -7.071068e-01 -4.117007e-05 -7.071068e-01
    outer loop
      vertex 1.731910e+01 1.750000e+01 8.000135e+01
      vertex 1.000135e+01 1.750000e+01 8.731910e+01
      vertex 1.731973e+01 3.750000e+01 7.999955e+01
    endloop
  endfacet
  facet normal 0.000000e+00 1.000000e+00 0.000000e+00
    outer loop
      vertex -3.000000e+01 3.750000e+01 7.000000e+01
      vertex 3.000000e+01 3.750000e+01 0.000000e+00
      vertex -3.000000e+01 3.750000e+01 0.000000e+00
    endloop
  endfacet
  facet normal 0.000000e+00 0.000000e+00 -1.000000e+00
    outer loop
      vertex -3.000000e+01 1.750000e+01 0.000000e+00
      vertex -3.000000e+01 3.750000e+01 0.000000e+00
      vertex 3.000000e+01 3.750000e+01 0.000000e+00
    endloop
  endfacet
  facet normal -1.000000e+00 0.000000e+00 0.000000e+00
    outer loop
      vertex -3.000000e+01 1.750000e+01 7.000000e+01
      vertex -3.000000e+01 3.750000e+01 7.000000e+01
      vertex -3.000000e+01 3.750000e+01 0.000000e+00
    endloop
  endfacet
  facet normal -1.000000e+00 0.000000e+00 0.000000e+00
    outer loop
      vertex -3.000000e+01 -1.750000e+01 2.500000e+01
      vertex -3.000000e+01 3.750000e+01 0.000000e+00
      vertex -3.000000e+01 1.750000e+01 0.000000e+00
    endloop
  endfacet
  facet normal -1.000000e+00 0.000000e+00 0.000000e+00
    outer loop
      vertex -3.000000e+01 1.750000e+01 2.500000e+01
      vertex -3.000000e+01 1.750000e+01 7.000000e+01
      vertex -3.000000e+01 3.750000e+01 0.000000e+00
    endloop
  endfacet
  facet normal -1.000000e+00 0.000000e+00 0.000000e+00
    outer loop
      vertex -3.000000e+01 -1.750000e+01 2.500000e+01
      vertex -3.000000e+01 1.750000e+01 2.500000e+01
      vertex -3.000000e+01 3.750000e+01 0.000000e+00
    endloop
  endfacet
  facet normal 1.000000e+00 0.000000e+00 0.000000e+00
    outer loop
      vertex 3.000000e+01 1.750000e+01 0.000000e+00
      vertex 3.000000e+01 3.750000e+01 0.000000e+00
      vertex 3.000000e+01 3.750000e+01 7.000000e+01
    endloop
  endfacet
  facet normal 0.000000e+00 0.000000e+00 -1.000000e+00
    outer loop
      vertex 3.000000e+01 1.750000e+01 0.000000e+00
      vertex -3.000000e+01 1.750000e+01 0.000000e+00
      vertex 3.000000e+01 3.750000e+01 0.000000e+00
    endloop
  endfacet
  facet normal 9.749193e-01 1.581375e-16 2.225588e-01
    outer loop
      vertex 3.000000e+01 1.750000e+01 7.000000e+01
      vertex 3.000000e+01 3.750000e+01 7.000000e+01
      vertex 2.702884e+01 3.750000e+01 8.301517e+01
    endloop
  endfacet
  facet normal 1.000000e+00 0.000000e+00 0.000000e+00
    outer loop
      vertex 3.000000e+01 1.750000e+01 2.500000e+01
      vertex 3.000000e+01 3.750000e+01 7.000000e+01
      vertex 3.000000e+01 1.750000e+01 7.000000e+01
    endloop
  endfacet
  facet normal 1.000000e+00 0.000000e+00 0.000000e+00
    outer loop
      vertex 3.000000e+01 1.750000e+01 0.000000e+00
      vertex 3.000000e+01 3.750000e+01 7.000000e+01
      vertex 3.000000e+01 1.750000e+01 2.500000e+01
    endloop
  endfacet
  facet normal 7.818411e-01 3.050752e-05 6.234778e-01
    outer loop
      vertex 2.702810e+01 1.750000e+01 8.301708e+01
      vertex 2.702884e+01 3.750000e+01 8.301517e+01
      vertex 1.870241e+01 3.750000e+01 9.345651e+01
    endloop
  endfacet
  facet normal 9.749143e-01 -1.488713e-05 2.225805e-01
    outer loop
      vertex 2.702810e+01 1.750000e+01 8.301708e+01
      vertex 3.000000e+01 1.750000e+01 7.000000e+01
      vertex 2.702884e+01 3.750000e+01 8.301517e+01
    endloop
  endfacet
  facet normal 0.000000e+00 1.000000e+00 0.000000e+00
    outer loop
      vertex -6.678204e+00 3.750000e+01 9.924669e+01
      vertex 6.678204e+00 3.750000e+01 9.924669e+01
      vertex 1.870241e+01 3.750000e+01 9.345651e+01
    endloop
  endfacet
  facet normal 4.338609e-01 -5.467488e-05 9.009799e-01
    outer loop
      vertex 1.870642e+01 1.750000e+01 9.345337e+01
      vertex 1.870241e+01 3.750000e+01 9.345651e+01
      vertex 6.678204e+00 3.750000e+01 9.924669e+01
    endloop
  endfacet
  facet normal 0.000000e+00 1.000000e+00 0.000000e+00
    outer loop
      vertex -1.870241e+01 3.750000e+01 9.345651e+01
      vertex -6.678204e+00 3.750000e+01 9.924669e+01
      vertex 1.870241e+01 3.750000e+01 9.345651e+01
    endloop
  endfacet
  facet normal 7.818673e-01 5.858243e-05 6.234449e-01
    outer loop
      vertex 1.870642e+01 1.750000e+01 9.345337e+01
      vertex 2.702810e+01 1.750000e+01 8.301708e+01
      vertex 1.870241e+01 3.750000e+01 9.345651e+01
    endloop
  endfacet
  facet normal -1.063973e-15 6.212821e-05 1.000000e+00
    outer loop
      vertex 6.673260e+00 1.750000e+01 9.924793e+01
      vertex 6.678204e+00 3.750000e+01 9.924669e+01
      vertex -6.678204e+00 3.750000e+01 9.924669e+01
    endloop
  endfacet
  facet normal 4.338654e-01 -5.128287e-05 9.009777e-01
    outer loop
      vertex 6.673260e+00 1.750000e+01 9.924793e+01
      vertex 1.870642e+01 1.750000e+01 9.345337e+01
      vertex 6.678204e+00 3.750000e+01 9.924669e+01
    endloop
  endfacet
  facet normal -4.338609e-01 -5.128160e-05 9.009799e-01
    outer loop
      vertex -6.673260e+00 1.750000e+01 9.924793e+01
      vertex -6.678204e+00 3.750000e+01 9.924669e+01
      vertex -1.870241e+01 3.750000e+01 9.345651e+01
    endloop
  endfacet
  facet normal 0.000000e+00 6.212821e-05 1.000000e+00
    outer loop
      vertex -6.673260e+00 1.750000e+01 9.924793e+01
      vertex 6.673260e+00 1.750000e+01 9.924793e+01
      vertex -6.678204e+00 3.750000e+01 9.924669e+01
    endloop
  endfacet
  facet normal -7.818411e-01 5.857201e-05 6.234778e-01
    outer loop
      vertex -1.870642e+01 1.750000e+01 9.345337e+01
      vertex -1.870241e+01 3.750000e+01 9.345651e+01
      vertex -2.702884e+01 3.750000e+01 8.301517e+01
    endloop
  endfacet
  facet normal -4.338654e-01 -5.467361e-05 9.009777e-01
    outer loop
      vertex -1.870642e+01 1.750000e+01 9.345337e+01
      vertex -6.673260e+00 1.750000e+01 9.924793e+01
      vertex -1.870241e+01 3.750000e+01 9.345651e+01
    endloop
  endfacet
  facet normal -9.749193e-01 -1.488939e-05 2.225588e-01
    outer loop
      vertex -2.702810e+01 1.750000e+01 8.301708e+01
      vertex -2.702884e+01 3.750000e+01 8.301517e+01
      vertex -3.000000e+01 3.750000e+01 7.000000e+01
    endloop
  endfacet
  facet normal -7.818673e-01 3.050342e-05 6.234449e-01
    outer loop
      vertex -2.702810e+01 1.750000e+01 8.301708e+01
      vertex -1.870642e+01 1.750000e+01 9.345337e+01
      vertex -2.702884e+01 3.750000e+01 8.301517e+01
    endloop
  endfacet
  facet normal -9.749143e-01 0.000000e+00 2.225805e-01
    outer loop
      vertex -2.702810e+01 1.750000e+01 8.301708e+01
      vertex -3.000000e+01 3.750000e+01 7.000000e+01
      vertex -3.000000e+01 1.750000e+01 7.000000e+01
    endloop
  endfacet
  facet normal 9.659004e-01 0.000000e+00 -2.589138e-01
    outer loop
      vertex -1.731910e+01 1.750000e+01 -5.999865e+01
      vertex -1.731910e+01 -1.750000e+01 -5.999865e+01
      vertex -2.000000e+01 -1.750000e+01 -7.000000e+01
    endloop
  endfacet
  facet normal 0.000000e+00 -1.000000e+00 0.000000e+00
    outer loop
      vertex -3.000000e+01 -1.750000e+01 -7.000000e+01
      vertex -2.000000e+01 -1.750000e+01 -7.000000e+01
      vertex -1.731910e+01 -1.750000e+01 -5.999865e+01
    endloop
  endfacet
  facet normal 9.659004e-01 0.000000e+00 -2.589138e-01
    outer loop
      vertex -2.000000e+01 1.750000e+01 -7.000000e+01
      vertex -1.731910e+01 1.750000e+01 -5.999865e+01
      vertex -2.000000e+01 -1.750000e+01 -7.000000e+01
    endloop
  endfacet
  facet normal 9.659004e-01 0.000000e+00 2.589138e-01
    outer loop
      vertex -1.731910e+01 -1.750000e+01 -8.000135e+01
      vertex -2.000000e+01 1.750000e+01 -7.000000e+01
      vertex -2.000000e+01 -1.750000e+01 -7.000000e+01
    endloop
  endfacet
  facet normal 0.000000e+00 -1.000000e+00 0.000000e+00
    outer loop
      vertex -2.702810e+01 -1.750000e+01 -8.301708e+01
      vertex -1.731910e+01 -1.750000e+01 -8.000135e+01
      vertex -2.000000e+01 -1.750000e+01 -7.000000e+01
    endloop
  endfacet
  facet normal 0.000000e+00 -1.000000e+00 0.000000e+00
    outer loop
      vertex -2.702810e+01 -1.750000e+01 -8.301708e+01
      vertex -2.000000e+01 -1.750000e+01 -7.000000e+01
      vertex -3.000000e+01 -1.750000e+01 -7.000000e+01
    endloop
  endfacet
  facet normal 7.071068e-01 0.000000e+00 -7.071068e-01
    outer loop
      vertex -1.000135e+01 1.750000e+01 -5.268090e+01
      vertex -1.000135e+01 -1.750000e+01 -5.268090e+01
      vertex -1.731910e+01 -1.750000e+01 -5.999865e+01
    endloop
  endfacet
  facet normal 0.000000e+00 -1.000000e+00 0.000000e+00
    outer loop
      vertex -3.000000e+01 -1.750000e+01 -7.000000e+01
      vertex -1.731910e+01 -1.750000e+01 -5.999865e+01
      vertex -1.000135e+01 -1.750000e+01 -5.268090e+01
    endloop
  endfacet
  facet normal 7.071068e-01 0.000000e+00 -7.071068e-01
    outer loop
      vertex -1.731910e+01 1.750000e+01 -5.999865e+01
      vertex -1.000135e+01 1.750000e+01 -5.268090e+01
      vertex -1.731910e+01 -1.750000e+01 -5.999865e+01
    endloop
  endfacet
  facet normal 2.589138e-01 0.000000e+00 -9.659004e-01
    outer loop
      vertex -5.729026e-15 1.750000e+01 -5.000000e+01
      vertex -5.729026e-15 -1.750000e+01 -5.000000e+01
      vertex -1.000135e+01 -1.750000e+01 -5.268090e+01
    endloop
  endfacet
  facet normal 0.000000e+00 -1.000000e+00 0.000000e+00
    outer loop
      vertex 3.000000e+01 -1.750000e+01 0.000000e+00
      vertex -1.000135e+01 -1.750000e+01 -5.268090e+01
      vertex -5.729026e-15 -1.750000e+01 -5.000000e+01
    endloop
  endfacet
  facet normal 2.589138e-01 0.000000e+00 -9.659004e-01
    outer loop
      vertex -1.000135e+01 1.750000e+01 -5.268090e+01
      vertex -5.729026e-15 1.750000e+01 -5.000000e+01
      vertex -1.000135e+01 -1.750000e+01 -5.268090e+01
    endloop
  endfacet
  facet normal 0.000000e+00 -1.000000e+00 0.000000e+00
    outer loop
      vertex 3.000000e+01 -1.750000e+01 0.000000e+00
      vertex -3.000000e+01 -1.750000e+01 -7.000000e+01
      vertex -1.000135e+01 -1.750000e+01 -5.268090e+01
    endloop
  endfacet
  facet normal -2.589138e-01 0.000000e+00 -9.659004e-01
    outer loop
      vertex 1.000135e+01 1.750000e+01 -5.268090e+01
      vertex 1.000135e+01 -1.750000e+01 -5.268090e+01
      vertex -5.729026e-15 -1.750000e+01 -5.000000e+01
    endloop
  endfacet
  facet normal 0.000000e+00 -1.000000e+00 0.000000e+00
    outer loop
      vertex 3.000000e+01 -1.750000e+01 0.000000e+00
      vertex -5.729026e-15 -1.750000e+01 -5.000000e+01
      vertex 1.000135e+01 -1.750000e+01 -5.268090e+01
    endloop
  endfacet
  facet normal -2.589138e-01 0.000000e+00 -9.659004e-01
    outer loop
      vertex -5.729026e-15 1.750000e+01 -5.000000e+01
      vertex 1.000135e+01 1.750000e+01 -5.268090e+01
      vertex -5.729026e-15 -1.750000e+01 -5.000000e+01
    endloop
  endfacet
  facet normal -7.071068e-01 0.000000e+00 -7.071068e-01
    outer loop
      vertex 1.731910e+01 1.750000e+01 -5.999865e+01
      vertex 1.731910e+01 -1.750000e+01 -5.999865e+01
      vertex 1.000135e+01 -1.750000e+01 -5.268090e+01
    endloop
  endfacet
  facet normal 0.000000e+00 -1.000000e+00 0.000000e+00
    outer loop
      vertex 3.000000e+01 -1.750000e+01 0.000000e+00
      vertex 1.000135e+01 -1.750000e+01 -5.268090e+01
      vertex 1.731910e+01 -1.750000e+01 -5.999865e+01
    endloop
  endfacet
  facet normal -7.071068e-01 0.000000e+00 -7.071068e-01
    outer loop
      vertex 1.000135e+01 1.750000e+01 -5.268090e+01
      vertex 1.731910e+01 1.750000e+01 -5.999865e+01
      vertex 1.000135e+01 -1.750000e+01 -5.268090e+01
    endloop
  endfacet
  facet normal -9.659004e-01 0.000000e+00 -2.589138e-01
    outer loop
      vertex 2.000000e+01 1.750000e+01 -7.000000e+01
      vertex 2.000000e+01 -1.750000e+01 -7.000000e+01
      vertex 1.731910e+01 -1.750000e+01 -5.999865e+01
    endloop
  endfacet
  facet normal 0.000000e+00 -1.000000e+00 0.000000e+00
    outer loop
      vertex 3.000000e+01 -1.750000e+01 0.000000e+00
      vertex 1.731910e+01 -1.750000e+01 -5.999865e+01
      vertex 2.000000e+01 -1.750000e+01 -7.000000e+01
    endloop
  endfacet
  facet normal -9.659004e-01 0.000000e+00 -2.589138e-01
    outer loop
      vertex 1.731910e+01 1.750000e+01 -5.999865e+01
      vertex 2.000000e+01 1.750000e+01 -7.000000e+01
      vertex 1.731910e+01 -1.750000e+01 -5.999865e+01
    endloop
  endfacet
  facet normal -9.659004e-01 0.000000e+00 2.589138e-01
    outer loop
      vertex 1.731910e+01 1.750000e+01 -8.000135e+01
      vertex 2.000000e+01 -1.750000e+01 -7.000000e+01
      vertex 2.000000e+01 1.750000e+01 -7.000000e+01
    endloop
  endfacet
  facet normal -9.659004e-01 0.000000e+00 2.589138e-01
    outer loop
      vertex 1.731910e+01 1.750000e+01 -8.000135e+01
      vertex 1.731910e+01 -1.750000e+01 -8.000135e+01
      vertex 2.000000e+01 -1.750000e+01 -7.000000e+01
    endloop
  endfacet
  facet normal 0.000000e+00 -1.000000e+00 0.000000e+00
    outer loop
      vertex 3.000000e+01 -1.750000e+01 -7.000000e+01
      vertex 2.000000e+01 -1.750000e+01 -7.000000e+01
      vertex 1.731910e+01 -1.750000e+01 -8.000135e+01
    endloop
  endfacet
  facet normal 0.000000e+00 -1.000000e+00 0.000000e+00
    outer loop
      vertex 3.000000e+01 -1.750000e+01 0.000000e+00
      vertex 2.000000e+01 -1.750000e+01 -7.000000e+01
      vertex 3.000000e+01 -1.750000e+01 -7.000000e+01
    endloop
  endfacet
  facet normal 0.000000e+00 1.000000e+00 0.000000e+00
    outer loop
      vertex 3.000000e+01 1.750000e+01 -7.000000e+01
      vertex 2.000000e+01 1.750000e+01 -7.000000e+01
      vertex 1.731910e+01 1.750000e+01 -5.999865e+01
    endloop
  endfacet
  facet normal 0.000000e+00 1.000000e+00 0.000000e+00
    outer loop
      vertex 2.702810e+01 1.750000e+01 -8.301708e+01
      vertex 1.731910e+01 1.750000e+01 -8.000135e+01
      vertex 2.000000e+01 1.750000e+01 -7.000000e+01
    endloop
  endfacet
  facet normal 0.000000e+00 1.000000e+00 0.000000e+00
    outer loop
      vertex 2.702810e+01 1.750000e+01 -8.301708e+01
      vertex 2.000000e+01 1.750000e+01 -7.000000e+01
      vertex 3.000000e+01 1.750000e+01 -7.000000e+01
    endloop
  endfacet
  facet normal 0.000000e+00 1.000000e+00 0.000000e+00
    outer loop
      vertex 3.000000e+01 1.750000e+01 -7.000000e+01
      vertex 1.731910e+01 1.750000e+01 -5.999865e+01
      vertex 1.000135e+01 1.750000e+01 -5.268090e+01
    endloop
  endfacet
  facet normal 0.000000e+00 1.000000e+00 0.000000e+00
    outer loop
      vertex -3.000000e+01 1.750000e+01 0.000000e+00
      vertex 1.000135e+01 1.750000e+01 -5.268090e+01
      vertex -5.729026e-15 1.750000e+01 -5.000000e+01
    endloop
  endfacet
  facet normal 0.000000e+00 1.000000e+00 0.000000e+00
    outer loop
      vertex 3.000000e+01 1.750000e+01 -7.000000e+01
      vertex 1.000135e+01 1.750000e+01 -5.268090e+01
      vertex -3.000000e+01 1.750000e+01 0.000000e+00
    endloop
  endfacet
  facet normal 0.000000e+00 1.000000e+00 0.000000e+00
    outer loop
      vertex -3.000000e+01 1.750000e+01 0.000000e+00
      vertex -5.729026e-15 1.750000e+01 -5.000000e+01
      vertex -1.000135e+01 1.750000e+01 -5.268090e+01
    endloop
  endfacet
  facet normal 0.000000e+00 1.000000e+00 0.000000e+00
    outer loop
      vertex -3.000000e+01 1.750000e+01 0.000000e+00
      vertex -1.000135e+01 1.750000e+01 -5.268090e+01
      vertex -1.731910e+01 1.750000e+01 -5.999865e+01
    endloop
  endfacet
  facet normal 0.000000e+00 1.000000e+00 0.000000e+00
    outer loop
      vertex -3.000000e+01 1.750000e+01 0.000000e+00
      vertex -1.731910e+01 1.750000e+01 -5.999865e+01
      vertex -2.000000e+01 1.750000e+01 -7.000000e+01
    endloop
  endfacet
  facet normal 9.659004e-01 0.000000e+00 2.589138e-01
    outer loop
      vertex -1.731910e+01 1.750000e+01 -8.000135e+01
      vertex -2.000000e+01 1.750000e+01 -7.000000e+01
      vertex -1.731910e+01 -1.750000e+01 -8.000135e+01
    endloop
  endfacet
  facet normal 0.000000e+00 1.000000e+00 0.000000e+00
    outer loop
      vertex -3.000000e+01 1.750000e+01 -7.000000e+01
      vertex -2.000000e+01 1.750000e+01 -7.000000e+01
      vertex -1.731910e+01 1.750000e+01 -8.000135e+01
    endloop
  endfacet
  facet normal 0.000000e+00 1.000000e+00 0.000000e+00
    outer loop
      vertex -3.000000e+01 1.750000e+01 0.000000e+00
      vertex -2.000000e+01 1.750000e+01 -7.000000e+01
      vertex -3.000000e+01 1.750000e+01 -7.000000e+01
    endloop
  endfacet
  facet normal -7.071068e-01 0.000000e+00 7.071068e-01
    outer loop
      vertex 1.000135e+01 1.750000e+01 -8.731910e+01
      vertex 1.000135e+01 -1.750000e+01 -8.731910e+01
      vertex 1.731910e+01 -1.750000e+01 -8.000135e+01
    endloop
  endfacet
  facet normal 0.000000e+00 -1.000000e+00 0.000000e+00
    outer loop
      vertex 2.702810e+01 -1.750000e+01 -8.301708e+01
      vertex 1.731910e+01 -1.750000e+01 -8.000135e+01
      vertex 1.000135e+01 -1.750000e+01 -8.731910e+01
    endloop
  endfacet
  facet normal -7.071068e-01 0.000000e+00 7.071068e-01
    outer loop
      vertex 1.731910e+01 1.750000e+01 -8.000135e+01
      vertex 1.000135e+01 1.750000e+01 -8.731910e+01
      vertex 1.731910e+01 -1.750000e+01 -8.000135e+01
    endloop
  endfacet
  facet normal 0.000000e+00 -1.000000e+00 0.000000e+00
    outer loop
      vertex 2.702810e+01 -1.750000e+01 -8.301708e+01
      vertex 3.000000e+01 -1.750000e+01 -7.000000e+01
      vertex 1.731910e+01 -1.750000e+01 -8.000135e+01
    endloop
  endfacet
  facet normal -2.589138e-01 0.000000e+00 9.659004e-01
    outer loop
      vertex 5.343203e-15 1.750000e+01 -9.000000e+01
      vertex 5.343203e-15 -1.750000e+01 -9.000000e+01
      vertex 1.000135e+01 -1.750000e+01 -8.731910e+01
    endloop
  endfacet
  facet normal 0.000000e+00 -1.000000e+00 0.000000e+00
    outer loop
      vertex 2.702810e+01 -1.750000e+01 -8.301708e+01
      vertex 1.000135e+01 -1.750000e+01 -8.731910e+01
      vertex 5.343203e-15 -1.750000e+01 -9.000000e+01
    endloop
  endfacet
  facet normal -2.589138e-01 0.000000e+00 9.659004e-01
    outer loop
      vertex 1.000135e+01 1.750000e+01 -8.731910e+01
      vertex 5.343203e-15 1.750000e+01 -9.000000e+01
      vertex 1.000135e+01 -1.750000e+01 -8.731910e+01
    endloop
  endfacet
  facet normal 2.589138e-01 0.000000e+00 9.659004e-01
    outer loop
      vertex -1.000135e+01 1.750000e+01 -8.731910e+01
      vertex -1.000135e+01 -1.750000e+01 -8.731910e+01
      vertex 5.343203e-15 -1.750000e+01 -9.000000e+01
    endloop
  endfacet
  facet normal 0.000000e+00 -1.000000e+00 0.000000e+00
    outer loop
      vertex -1.870642e+01 -1.750000e+01 -9.345337e+01
      vertex 5.343203e-15 -1.750000e+01 -9.000000e+01
      vertex -1.000135e+01 -1.750000e+01 -8.731910e+01
    endloop
  endfacet
  facet normal 2.589138e-01 0.000000e+00 9.659004e-01
    outer loop
      vertex 5.343203e-15 1.750000e+01 -9.000000e+01
      vertex -1.000135e+01 1.750000e+01 -8.731910e+01
      vertex 5.343203e-15 -1.750000e+01 -9.000000e+01
    endloop
  endfacet
  facet normal 0.000000e+00 -1.000000e+00 0.000000e+00
    outer loop
      vertex 1.870642e+01 -1.750000e+01 -9.345337e+01
      vertex 5.343203e-15 -1.750000e+01 -9.000000e+01
      vertex -1.870642e+01 -1.750000e+01 -9.345337e+01
    endloop
  endfacet
  facet normal 0.000000e+00 -1.000000e+00 0.000000e+00
    outer loop
      vertex 2.702810e+01 -1.750000e+01 -8.301708e+01
      vertex 5.343203e-15 -1.750000e+01 -9.000000e+01
      vertex 1.870642e+01 -1.750000e+01 -9.345337e+01
    endloop
  endfacet
  facet normal 7.071068e-01 0.000000e+00 7.071068e-01
    outer loop
      vertex -1.731910e+01 1.750000e+01 -8.000135e+01
      vertex -1.731910e+01 -1.750000e+01 -8.000135e+01
      vertex -1.000135e+01 -1.750000e+01 -8.731910e+01
    endloop
  endfacet
  facet normal 0.000000e+00 -1.000000e+00 0.000000e+00
    outer loop
      vertex -2.702810e+01 -1.750000e+01 -8.301708e+01
      vertex -1.000135e+01 -1.750000e+01 -8.731910e+01
      vertex -1.731910e+01 -1.750000e+01 -8.000135e+01
    endloop
  endfacet
  facet normal 7.071068e-01 0.000000e+00 7.071068e-01
    outer loop
      vertex -1.000135e+01 1.750000e+01 -8.731910e+01
      vertex -1.731910e+01 1.750000e+01 -8.000135e+01
      vertex -1.000135e+01 -1.750000e+01 -8.731910e+01
    endloop
  endfacet
  facet normal 0.000000e+00 -1.000000e+00 0.000000e+00
    outer loop
      vertex -1.870642e+01 -1.750000e+01 -9.345337e+01
      vertex -1.000135e+01 -1.750000e+01 -8.731910e+01
      vertex -2.702810e+01 -1.750000e+01 -8.301708e+01
    endloop
  endfacet
  facet normal 0.000000e+00 1.000000e+00 0.000000e+00
    outer loop
      vertex -2.702810e+01 1.750000e+01 -8.301708e+01
      vertex -1.731910e+01 1.750000e+01 -8.000135e+01
      vertex -1.000135e+01 1.750000e+01 -8.731910e+01
    endloop
  endfacet
  facet normal 0.000000e+00 1.000000e+00 0.000000e+00
    outer loop
      vertex -2.702810e+01 1.750000e+01 -8.301708e+01
      vertex -3.000000e+01 1.750000e+01 -7.000000e+01
      vertex -1.731910e+01 1.750000e+01 -8.000135e+01
    endloop
  endfacet
  facet normal 0.000000e+00 1.000000e+00 0.000000e+00
    outer loop
      vertex -2.702810e+01 1.750000e+01 -8.301708e+01
      vertex -1.000135e+01 1.750000e+01 -8.731910e+01
      vertex 5.343203e-15 1.750000e+01 -9.000000e+01
    endloop
  endfacet
  facet normal 0.000000e+00 1.000000e+00 0.000000e+00
    outer loop
      vertex 1.870642e+01 1.750000e+01 -9.345337e+01
      vertex 5.343203e-15 1.750000e+01 -9.000000e+01
      vertex 1.000135e+01 1.750000e+01 -8.731910e+01
    endloop
  endfacet
  facet normal 0.000000e+00 1.000000e+00 0.000000e+00
    outer loop
      vertex -1.870642e+01 1.750000e+01 -9.345337e+01
      vertex 5.343203e-15 1.750000e+01 -9.000000e+01
      vertex 1.870642e+01 1.750000e+01 -9.345337e+01
    endloop
  endfacet
  facet normal 0.000000e+00 1.000000e+00 0.000000e+00
    outer loop
      vertex -2.702810e+01 1.750000e+01 -8.301708e+01
      vertex 5.343203e-15 1.750000e+01 -9.000000e+01
      vertex -1.870642e+01 1.750000e+01 -9.345337e+01
    endloop
  endfacet
  facet normal 0.000000e+00 1.000000e+00 0.000000e+00
    outer loop
      vertex 2.702810e+01 1.750000e+01 -8.301708e+01
      vertex 1.000135e+01 1.750000e+01 -8.731910e+01
      vertex 1.731910e+01 1.750000e+01 -8.000135e+01
    endloop
  endfacet
  facet normal 0.000000e+00 1.000000e+00 0.000000e+00
    outer loop
      vertex 1.870642e+01 1.750000e+01 -9.345337e+01
      vertex 1.000135e+01 1.750000e+01 -8.731910e+01
      vertex 2.702810e+01 1.750000e+01 -8.301708e+01
    endloop
  endfacet
  facet normal 0.000000e+00 1.000000e+00 0.000000e+00
    outer loop
      vertex -2.702810e+01 -1.750000e+01 8.301708e+01
      vertex -1.731910e+01 -1.750000e+01 8.000135e+01
      vertex -2.000000e+01 -1.750000e+01 7.000000e+01
    endloop
  endfacet
  facet normal -1.065814e-15 1.000000e+00 -2.856960e-16
    outer loop
      vertex -3.000000e+01 -1.750000e+01 7.000000e+01
      vertex -2.000000e+01 -1.750000e+01 7.000000e+01
      vertex -1.731910e+01 -1.750000e+01 5.999865e+01
    endloop
  endfacet
  facet normal -1.065814e-15 1.000000e+00 -5.754475e-16
    outer loop
      vertex -2.702810e+01 -1.750000e+01 8.301708e+01
      vertex -2.000000e+01 -1.750000e+01 7.000000e+01
      vertex -3.000000e+01 -1.750000e+01 7.000000e+01
    endloop
  endfacet
  facet normal 1.065814e-15 1.000000e+00 2.856960e-16
    outer loop
      vertex 3.000000e+01 -1.750000e+01 7.000000e+01
      vertex 2.000000e+01 -1.750000e+01 7.000000e+01
      vertex 1.731910e+01 -1.750000e+01 8.000135e+01
    endloop
  endfacet
  facet normal 4.830898e-16 1.000000e+00 -1.294943e-16
    outer loop
      vertex 3.000000e+01 -1.750000e+01 2.500000e+01
      vertex 1.731910e+01 -1.750000e+01 5.999865e+01
      vertex 2.000000e+01 -1.750000e+01 7.000000e+01
    endloop
  endfacet
  facet normal 1.065814e-15 1.000000e+00 0.000000e+00
    outer loop
      vertex 3.000000e+01 -1.750000e+01 2.500000e+01
      vertex 2.000000e+01 -1.750000e+01 7.000000e+01
      vertex 3.000000e+01 -1.750000e+01 7.000000e+01
    endloop
  endfacet
  facet normal 0.000000e+00 1.000000e+00 0.000000e+00
    outer loop
      vertex 2.702810e+01 -1.750000e+01 8.301708e+01
      vertex 1.731910e+01 -1.750000e+01 8.000135e+01
      vertex 1.000135e+01 -1.750000e+01 8.731910e+01
    endloop
  endfacet
  facet normal 2.374821e-16 1.000000e+00 -7.645621e-16
    outer loop
      vertex 3.000000e+01 -1.750000e+01 7.000000e+01
      vertex 1.731910e+01 -1.750000e+01 8.000135e+01
      vertex 2.702810e+01 -1.750000e+01 8.301708e+01
    endloop
  endfacet
  facet normal 0.000000e+00 1.000000e+00 0.000000e+00
    outer loop
      vertex 2.702810e+01 -1.750000e+01 8.301708e+01
      vertex 1.000135e+01 -1.750000e+01 8.731910e+01
      vertex -2.131628e-14 -1.750000e+01 9.000000e+01
    endloop
  endfacet
  facet normal 0.000000e+00 1.000000e+00 0.000000e+00
    outer loop
      vertex -1.870642e+01 -1.750000e+01 9.345337e+01
      vertex -2.131628e-14 -1.750000e+01 9.000000e+01
      vertex -1.000135e+01 -1.750000e+01 8.731910e+01
    endloop
  endfacet
  facet normal 0.000000e+00 1.000000e+00 0.000000e+00
    outer loop
      vertex 1.870642e+01 -1.750000e+01 9.345337e+01
      vertex -2.131628e-14 -1.750000e+01 9.000000e+01
      vertex -1.870642e+01 -1.750000e+01 9.345337e+01
    endloop
  endfacet
  facet normal 0.000000e+00 1.000000e+00 0.000000e+00
    outer loop
      vertex 2.702810e+01 -1.750000e+01 8.301708e+01
      vertex -2.131628e-14 -1.750000e+01 9.000000e+01
      vertex 1.870642e+01 -1.750000e+01 9.345337e+01
    endloop
  endfacet
  facet normal 0.000000e+00 1.000000e+00 0.000000e+00
    outer loop
      vertex -2.702810e+01 -1.750000e+01 8.301708e+01
      vertex -1.000135e+01 -1.750000e+01 8.731910e+01
      vertex -1.731910e+01 -1.750000e+01 8.000135e+01
    endloop
  endfacet
  facet normal 0.000000e+00 1.000000e+00 0.000000e+00
    outer loop
      vertex -1.870642e+01 -1.750000e+01 9.345337e+01
      vertex -1.000135e+01 -1.750000e+01 8.731910e+01
      vertex -2.702810e+01 -1.750000e+01 8.301708e+01
    endloop
  endfacet
  facet normal 0.000000e+00 -1.000000e+00 0.000000e+00
    outer loop
      vertex -3.000000e+01 1.750000e+01 7.000000e+01
      vertex -2.000000e+01 1.750000e+01 7.000000e+01
      vertex -1.731910e+01 1.750000e+01 8.000135e+01
    endloop
  endfacet
  facet normal 0.000000e+00 -1.000000e+00 0.000000e+00
    outer loop
      vertex -3.000000e+01 1.750000e+01 2.500000e+01
      vertex -1.731910e+01 1.750000e+01 5.999865e+01
      vertex -2.000000e+01 1.750000e+01 7.000000e+01
    endloop
  endfacet
  facet normal 0.000000e+00 -1.000000e+00 0.000000e+00
    outer loop
      vertex -3.000000e+01 1.750000e+01 2.500000e+01
      vertex -2.000000e+01 1.750000e+01 7.000000e+01
      vertex -3.000000e+01 1.750000e+01 7.000000e+01
    endloop
  endfacet
  facet normal 0.000000e+00 -1.000000e+00 0.000000e+00
    outer loop
      vertex -2.702810e+01 1.750000e+01 8.301708e+01
      vertex -1.731910e+01 1.750000e+01 8.000135e+01
      vertex -1.000135e+01 1.750000e+01 8.731910e+01
    endloop
  endfacet
  facet normal 0.000000e+00 -1.000000e+00 0.000000e+00
    outer loop
      vertex -2.702810e+01 1.750000e+01 8.301708e+01
      vertex -3.000000e+01 1.750000e+01 7.000000e+01
      vertex -1.731910e+01 1.750000e+01 8.000135e+01
    endloop
  endfacet
  facet normal 0.000000e+00 -1.000000e+00 0.000000e+00
    outer loop
      vertex -2.702810e+01 1.750000e+01 8.301708e+01
      vertex -1.000135e+01 1.750000e+01 8.731910e+01
      vertex -2.131628e-14 1.750000e+01 9.000000e+01
    endloop
  endfacet
  facet normal 0.000000e+00 -1.000000e+00 0.000000e+00
    outer loop
      vertex 1.870642e+01 1.750000e+01 9.345337e+01
      vertex -2.131628e-14 1.750000e+01 9.000000e+01
      vertex 1.000135e+01 1.750000e+01 8.731910e+01
    endloop
  endfacet
  facet normal 0.000000e+00 -1.000000e+00 0.000000e+00
    outer loop
      vertex -1.870642e+01 1.750000e+01 9.345337e+01
      vertex -2.131628e-14 1.750000e+01 9.000000e+01
      vertex 1.870642e+01 1.750000e+01 9.345337e+01
    endloop
  endfacet
  facet normal 0.000000e+00 -1.000000e+00 0.000000e+00
    outer loop
      vertex -2.702810e+01 1.750000e+01 8.301708e+01
      vertex -2.131628e-14 1.750000e+01 9.000000e+01
      vertex -1.870642e+01 1.750000e+01 9.345337e+01
    endloop
  endfacet
  facet normal 0.000000e+00 -1.000000e+00 0.000000e+00
    outer loop
      vertex 2.702810e+01 1.750000e+01 8.301708e+01
      vertex 1.000135e+01 1.750000e+01 8.731910e+01
      vertex 1.731910e+01 1.750000e+01 8.000135e+01
    endloop
  endfacet
  facet normal 0.000000e+00 -1.000000e+00 0.000000e+00
    outer loop
      vertex 1.870642e+01 1.750000e+01 9.345337e+01
      vertex 1.000135e+01 1.750000e+01 8.731910e+01
      vertex 2.702810e+01 1.750000e+01 8.301708e+01
    endloop
  endfacet
  facet normal 0.000000e+00 -1.000000e+00 0.000000e+00
    outer loop
      vertex 2.702810e+01 1.750000e+01 8.301708e+01
      vertex 1.731910e+01 1.750000e+01 8.000135e+01
      vertex 2.000000e+01 1.750000e+01 7.000000e+01
    endloop
  endfacet
  facet normal 0.000000e+00 -1.000000e+00 0.000000e+00
    outer loop
      vertex 3.000000e+01 1.750000e+01 7.000000e+01
      vertex 2.000000e+01 1.750000e+01 7.000000e+01
      vertex 1.731910e+01 1.750000e+01 5.999865e+01
    endloop
  endfacet
  facet normal 0.000000e+00 -1.000000e+00 0.000000e+00
    outer loop
      vertex 2.702810e+01 1.750000e+01 8.301708e+01
      vertex 2.000000e+01 1.750000e+01 7.000000e+01
      vertex 3.000000e+01 1.750000e+01 7.000000e+01
    endloop
  endfacet
  facet normal -3.977579e-15 1.000000e+00 -3.977579e-15
    outer loop
      vertex -3.000000e+01 -1.750000e+01 7.000000e+01
      vertex -1.731910e+01 -1.750000e+01 5.999865e+01
      vertex -1.000135e+01 -1.750000e+01 5.268090e+01
    endloop
  endfacet
  facet normal -1.684690e-16 1.000000e+00 -6.284885e-16
    outer loop
      vertex 3.000000e+01 -1.750000e+01 2.500000e+01
      vertex -1.000135e+01 -1.750000e+01 5.268090e+01
      vertex 0.000000e+00 -1.750000e+01 5.000000e+01
    endloop
  endfacet
  facet normal -5.329430e-16 1.000000e+00 0.000000e+00
    outer loop
      vertex -3.000000e+01 -1.750000e+01 7.000000e+01
      vertex -1.000135e+01 -1.750000e+01 5.268090e+01
      vertex -3.000000e+01 -1.750000e+01 2.500000e+01
    endloop
  endfacet
  facet normal 0.000000e+00 1.000000e+00 -3.850359e-16
    outer loop
      vertex 3.000000e+01 -1.750000e+01 2.500000e+01
      vertex -3.000000e+01 -1.750000e+01 2.500000e+01
      vertex -1.000135e+01 -1.750000e+01 5.268090e+01
    endloop
  endfacet
  facet normal 8.646548e-17 1.000000e+00 -3.225671e-16
    outer loop
      vertex 3.000000e+01 -1.750000e+01 2.500000e+01
      vertex 0.000000e+00 -1.750000e+01 5.000000e+01
      vertex 1.000135e+01 -1.750000e+01 5.268090e+01
    endloop
  endfacet
  facet normal 2.235369e-16 1.000000e+00 -2.235369e-16
    outer loop
      vertex 3.000000e+01 -1.750000e+01 2.500000e+01
      vertex 1.000135e+01 -1.750000e+01 5.268090e+01
      vertex 1.731910e+01 -1.750000e+01 5.999865e+01
    endloop
  endfacet
  facet normal 0.000000e+00 -1.000000e+00 0.000000e+00
    outer loop
      vertex 3.000000e+01 1.750000e+01 7.000000e+01
      vertex 1.731910e+01 1.750000e+01 5.999865e+01
      vertex 1.000135e+01 1.750000e+01 5.268090e+01
    endloop
  endfacet
  facet normal 0.000000e+00 -1.000000e+00 0.000000e+00
    outer loop
      vertex -3.000000e+01 1.750000e+01 2.500000e+01
      vertex 1.000135e+01 1.750000e+01 5.268090e+01
      vertex 0.000000e+00 1.750000e+01 5.000000e+01
    endloop
  endfacet
  facet normal 0.000000e+00 -1.000000e+00 0.000000e+00
    outer loop
      vertex 3.000000e+01 1.750000e+01 2.500000e+01
      vertex 1.000135e+01 1.750000e+01 5.268090e+01
      vertex -3.000000e+01 1.750000e+01 2.500000e+01
    endloop
  endfacet
  facet normal 0.000000e+00 -1.000000e+00 0.000000e+00
    outer loop
      vertex 3.000000e+01 1.750000e+01 2.500000e+01
      vertex 3.000000e+01 1.750000e+01 7.000000e+01
      vertex 1.000135e+01 1.750000e+01 5.268090e+01
    endloop
  endfacet
  facet normal 0.000000e+00 -1.000000e+00 0.000000e+00
    outer loop
      vertex -3.000000e+01 1.750000e+01 2.500000e+01
      vertex 0.000000e+00 1.750000e+01 5.000000e+01
      vertex -1.000135e+01 1.750000e+01 5.268090e+01
    endloop
  endfacet
  facet normal 0.000000e+00 -1.000000e+00 0.000000e+00
    outer loop
      vertex -3.000000e+01 1.750000e+01 2.500000e+01
      vertex -1.000135e+01 1.750000e+01 5.268090e+01
      vertex -1.731910e+01 1.750000e+01 5.999865e+01
    endloop
  endfacet
  facet normal -1.000000e+00 0.000000e+00 0.000000e+00
    outer loop
      vertex -3.000000e+01 -1.750000e+01 0.000000e+00
      vertex -3.000000e+01 1.750000e+01 -7.000000e+01
      vertex -3.000000e+01 -1.750000e+01 -7.000000e+01
    endloop
  endfacet
  facet normal -9.749143e-01 0.000000e+00 -2.225805e-01
    outer loop
      vertex -2.702810e+01 1.750000e+01 -8.301708e+01
      vertex -3.000000e+01 -1.750000e+01 -7.000000e+01
      vertex -3.000000e+01 1.750000e+01 -7.000000e+01
    endloop
  endfacet
  facet normal 0.000000e+00 -1.000000e+00 0.000000e+00
    outer loop
      vertex 3.000000e+01 -1.750000e+01 0.000000e+00
      vertex -3.000000e+01 -1.750000e+01 0.000000e+00
      vertex -3.000000e+01 -1.750000e+01 -7.000000e+01
    endloop
  endfacet
  facet normal -9.749143e-01 0.000000e+00 -2.225805e-01
    outer loop
      vertex -2.702810e+01 -1.750000e+01 -8.301708e+01
      vertex -3.000000e+01 -1.750000e+01 -7.000000e+01
      vertex -2.702810e+01 1.750000e+01 -8.301708e+01
    endloop
  endfacet
  facet normal -1.000000e+00 0.000000e+00 0.000000e+00
    outer loop
      vertex -3.000000e+01 -1.750000e+01 0.000000e+00
      vertex -3.000000e+01 1.750000e+01 0.000000e+00
      vertex -3.000000e+01 1.750000e+01 -7.000000e+01
    endloop
  endfacet
  facet normal -1.000000e+00 0.000000e+00 0.000000e+00
    outer loop
      vertex -3.000000e+01 -1.750000e+01 0.000000e+00
      vertex -3.000000e+01 -1.750000e+01 2.500000e+01
      vertex -3.000000e+01 1.750000e+01 0.000000e+00
    endloop
  endfacet
  facet normal 0.000000e+00 1.000000e+00 0.000000e+00
    outer loop
      vertex 3.000000e+01 1.750000e+01 -7.000000e+01
      vertex -3.000000e+01 1.750000e+01 0.000000e+00
      vertex 3.000000e+01 1.750000e+01 0.000000e+00
    endloop
  endfacet
  facet normal 0.000000e+00 0.000000e+00 1.000000e+00
    outer loop
      vertex 3.000000e+01 -1.750000e+01 2.500000e+01
      vertex -3.000000e+01 1.750000e+01 2.500000e+01
      vertex -3.000000e+01 -1.750000e+01 2.500000e+01
    endloop
  endfacet
  facet normal 0.000000e+00 0.000000e+00 1.000000e+00
    outer loop
      vertex 3.000000e+01 1.750000e+01 2.500000e+01
      vertex -3.000000e+01 1.750000e+01 2.500000e+01
      vertex 3.000000e+01 -1.750000e+01 2.500000e+01
    endloop
  endfacet
  facet normal 0.000000e+00 1.000000e+00 0.000000e+00
    outer loop
      vertex 1.870642e+01 -1.750000e+01 9.345337e+01
      vertex -1.870642e+01 -1.750000e+01 9.345337e+01
      vertex -6.673260e+00 -1.750000e+01 9.924793e+01
    endloop
  endfacet
  facet normal 0.000000e+00 1.000000e+00 0.000000e+00
    outer loop
      vertex 1.870642e+01 -1.750000e+01 9.345337e+01
      vertex -6.673260e+00 -1.750000e+01 9.924793e+01
      vertex 6.673260e+00 -1.750000e+01 9.924793e+01
    endloop
  endfacet
  facet normal 0.000000e+00 -1.000000e+00 0.000000e+00
    outer loop
      vertex -1.870642e+01 1.750000e+01 9.345337e+01
      vertex 1.870642e+01 1.750000e+01 9.345337e+01
      vertex 6.673260e+00 1.750000e+01 9.924793e+01
    endloop
  endfacet
  facet normal 0.000000e+00 -1.000000e+00 0.000000e+00
    outer loop
      vertex -1.870642e+01 1.750000e+01 9.345337e+01
      vertex 6.673260e+00 1.750000e+01 9.924793e+01
      vertex -6.673260e+00 1.750000e+01 9.924793e+01
    endloop
  endfacet
  facet normal 1.000000e+00 0.000000e+00 0.000000e+00
    outer loop
      vertex 3.000000e+01 1.750000e+01 0.000000e+00
      vertex 3.000000e+01 -1.750000e+01 0.000000e+00
      vertex 3.000000e+01 -1.750000e+01 -7.000000e+01
    endloop
  endfacet
  facet normal 1.000000e+00 0.000000e+00 0.000000e+00
    outer loop
      vertex 3.000000e+01 1.750000e+01 -7.000000e+01
      vertex 3.000000e+01 1.750000e+01 0.000000e+00
      vertex 3.000000e+01 -1.750000e+01 -7.000000e+01
    endloop
  endfacet
  facet normal 9.749143e-01 0.000000e+00 -2.225805e-01
    outer loop
      vertex 2.702810e+01 -1.750000e+01 -8.301708e+01
      vertex 3.000000e+01 1.750000e+01 -7.000000e+01
      vertex 3.000000e+01 -1.750000e+01 -7.000000e+01
    endloop
  endfacet
  facet normal 1.000000e+00 0.000000e+00 0.000000e+00
    outer loop
      vertex 3.000000e+01 1.750000e+01 0.000000e+00
      vertex 3.000000e+01 1.750000e+01 2.500000e+01
      vertex 3.000000e+01 -1.750000e+01 0.000000e+00
    endloop
  endfacet
  facet normal 9.749143e-01 0.000000e+00 -2.225805e-01
    outer loop
      vertex 2.702810e+01 -1.750000e+01 -8.301708e+01
      vertex 2.702810e+01 1.750000e+01 -8.301708e+01
      vertex 3.000000e+01 1.750000e+01 -7.000000e+01
    endloop
  endfacet
  facet normal 7.818673e-01 0.000000e+00 -6.234449e-01
    outer loop
      vertex 1.870642e+01 -1.750000e+01 -9.345337e+01
      vertex 1.870642e+01 1.750000e+01 -9.345337e+01
      vertex 2.702810e+01 1.750000e+01 -8.301708e+01
    endloop
  endfacet
  facet normal 7.818673e-01 0.000000e+00 -6.234449e-01
    outer loop
      vertex 2.702810e+01 -1.750000e+01 -8.301708e+01
      vertex 1.870642e+01 -1.750000e+01 -9.345337e+01
      vertex 2.702810e+01 1.750000e+01 -8.301708e+01
    endloop
  endfacet
  facet normal 0.000000e+00 1.000000e+00 0.000000e+00
    outer loop
      vertex -1.870642e+01 1.750000e+01 -9.345337e+01
      vertex 1.870642e+01 1.750000e+01 -9.345337e+01
      vertex 6.673260e+00 1.750000e+01 -9.924793e+01
    endloop
  endfacet
  facet normal 4.338654e-01 0.000000e+00 -9.009777e-01
    outer loop
      vertex 6.673260e+00 -1.750000e+01 -9.924793e+01
      vertex 6.673260e+00 1.750000e+01 -9.924793e+01
      vertex 1.870642e+01 1.750000e+01 -9.345337e+01
    endloop
  endfacet
  facet normal 4.338654e-01 0.000000e+00 -9.009777e-01
    outer loop
      vertex 1.870642e+01 -1.750000e+01 -9.345337e+01
      vertex 6.673260e+00 -1.750000e+01 -9.924793e+01
      vertex 1.870642e+01 1.750000e+01 -9.345337e+01
    endloop
  endfacet
  facet normal 0.000000e+00 1.000000e+00 0.000000e+00
    outer loop
      vertex -1.870642e+01 1.750000e+01 -9.345337e+01
      vertex 6.673260e+00 1.750000e+01 -9.924793e+01
      vertex -6.673260e+00 1.750000e+01 -9.924793e+01
    endloop
  endfacet
  facet normal 1.064761e-15 0.000000e+00 -1.000000e+00
    outer loop
      vertex -6.673260e+00 -1.750000e+01 -9.924793e+01
      vertex -6.673260e+00 1.750000e+01 -9.924793e+01
      vertex 6.673260e+00 1.750000e+01 -9.924793e+01
    endloop
  endfacet
  facet normal 1.064761e-15 0.000000e+00 -1.000000e+00
    outer loop
      vertex 6.673260e+00 -1.750000e+01 -9.924793e+01
      vertex -6.673260e+00 -1.750000e+01 -9.924793e+01
      vertex 6.673260e+00 1.750000e+01 -9.924793e+01
    endloop
  endfacet
  facet normal -4.338654e-01 0.000000e+00 -9.009777e-01
    outer loop
      vertex -1.870642e+01 -1.750000e+01 -9.345337e+01
      vertex -1.870642e+01 1.750000e+01 -9.345337e+01
      vertex -6.673260e+00 1.750000e+01 -9.924793e+01
    endloop
  endfacet
  facet normal -4.338654e-01 0.000000e+00 -9.009777e-01
    outer loop
      vertex -6.673260e+00 -1.750000e+01 -9.924793e+01
      vertex -1.870642e+01 -1.750000e+01 -9.345337e+01
      vertex -6.673260e+00 1.750000e+01 -9.924793e+01
    endloop
  endfacet
  facet normal -7.818673e-01 0.000000e+00 -6.234449e-01
    outer loop
      vertex -2.702810e+01 -1.750000e+01 -8.301708e+01
      vertex -2.702810e+01 1.750000e+01 -8.301708e+01
      vertex -1.870642e+01 1.750000e+01 -9.345337e+01
    endloop
  endfacet
  facet normal -7.818673e-01 0.000000e+00 -6.234449e-01
    outer loop
      vertex -1.870642e+01 -1.750000e+01 -9.345337e+01
      vertex -2.702810e+01 -1.750000e+01 -8.301708e+01
      vertex -1.870642e+01 1.750000e+01 -9.345337e+01
    endloop
  endfacet
  facet normal 0.000000e+00 -1.000000e+00 0.000000e+00
    outer loop
      vertex 1.870642e+01 -1.750000e+01 -9.345337e+01
      vertex -1.870642e+01 -1.750000e+01 -9.345337e+01
      vertex -6.673260e+00 -1.750000e+01 -9.924793e+01
    endloop
  endfacet
  facet normal 0.000000e+00 -1.000000e+00 0.000000e+00
    outer loop
      vertex 1.870642e+01 -1.750000e+01 -9.345337e+01
      vertex -6.673260e+00 -1.750000e+01 -9.924793e+01
      vertex 6.673260e+00 -1.750000e+01 -9.924793e+01
    endloop
  endfacet
endsolid 49923243PART2
